%YAML 1.1
%TAG !u! tag:unity3d.com,2011:
--- !u!1045 &1
EditorBuildSettings:
  m_ObjectHideFlags: 0
  serializedVersion: 2
  m_Scenes:
  - enabled: 1
    path: Assets/_Ejercicio2/Scenes/Menu.unity
    guid: 772f97a7feebd63458082bda356ce0c2
  - enabled: 1
    path: Assets/_Ejercicio2/Scenes/IDPlease.unity
    guid: 9fc0d4010bbf28b4594072e72b8655ab
  m_configObjects: {}
